shifter_test/simulation/qsim/VOXEL.msim.vcd
$comment
	File created using the following command:
		vcd file VOXEL.msim.vcd -direction
$end
$date
	Fri Apr 08 19:07:09 2022
$end
$version
	ModelSim Version 10.5b
$end
$timescale
	1ps
$end

$scope module top_vlg_vec_tst $end
$var reg 1 ! CLK_10M $end
$var reg 1 " DE $end
$var reg 1 # ENC_360 $end
$var reg 1 $ ENC_ABS_HOME $end
$var reg 16 % treg_SDRAM_DQ [15:0] $end
$var reg 1 & TESTCLK2 $end
$var reg 1 ' VSYNC $end
$var reg 1 ( nReset $end
$var wire 1 ) GSCLK $end
$var wire 1 * LAT $end
$var wire 1 + SCLK $end
$var wire 1 , SDO_11_3 $end
$var wire 1 - SDO_11_2 $end
$var wire 1 . SDO_11_1 $end
$var wire 1 / SDO_11_0 $end
$var wire 1 0 SDO_10_3 $end
$var wire 1 1 SDO_10_2 $end
$var wire 1 2 SDO_10_1 $end
$var wire 1 3 SDO_10_0 $end
$var wire 1 4 SDO_9_3 $end
$var wire 1 5 SDO_9_2 $end
$var wire 1 6 SDO_9_1 $end
$var wire 1 7 SDO_9_0 $end
$var wire 1 8 SDO_8_3 $end
$var wire 1 9 SDO_8_2 $end
$var wire 1 : SDO_8_1 $end
$var wire 1 ; SDO_8_0 $end
$var wire 1 < SDO_7_3 $end
$var wire 1 = SDO_7_2 $end
$var wire 1 > SDO_7_1 $end
$var wire 1 ? SDO_7_0 $end
$var wire 1 @ SDO_6_3 $end
$var wire 1 A SDO_6_2 $end
$var wire 1 B SDO_6_1 $end
$var wire 1 C SDO_6_0 $end
$var wire 1 D SDO_5_3 $end
$var wire 1 E SDO_5_2 $end
$var wire 1 F SDO_5_1 $end
$var wire 1 G SDO_5_0 $end
$var wire 1 H SDO_4_3 $end
$var wire 1 I SDO_4_2 $end
$var wire 1 J SDO_4_1 $end
$var wire 1 K SDO_4_0 $end
$var wire 1 L SDO_3_3 $end
$var wire 1 M SDO_3_2 $end
$var wire 1 N SDO_3_1 $end
$var wire 1 O SDO_3_0 $end
$var wire 1 P SDO_2_3 $end
$var wire 1 Q SDO_2_2 $end
$var wire 1 R SDO_2_1 $end
$var wire 1 S SDO_2_0 $end
$var wire 1 T SDO_1_3 $end
$var wire 1 U SDO_1_2 $end
$var wire 1 V SDO_1_1 $end
$var wire 1 W SDO_1_0 $end
$var wire 1 X SDO_0_3 $end
$var wire 1 Y SDO_0_2 $end
$var wire 1 Z SDO_0_1 $end
$var wire 1 [ SDO_0_0 $end
$var wire 1 \ SDRAM_ADDR [12] $end
$var wire 1 ] SDRAM_ADDR [11] $end
$var wire 1 ^ SDRAM_ADDR [10] $end
$var wire 1 _ SDRAM_ADDR [9] $end
$var wire 1 ` SDRAM_ADDR [8] $end
$var wire 1 a SDRAM_ADDR [7] $end
$var wire 1 b SDRAM_ADDR [6] $end
$var wire 1 c SDRAM_ADDR [5] $end
$var wire 1 d SDRAM_ADDR [4] $end
$var wire 1 e SDRAM_ADDR [3] $end
$var wire 1 f SDRAM_ADDR [2] $end
$var wire 1 g SDRAM_ADDR [1] $end
$var wire 1 h SDRAM_ADDR [0] $end
$var wire 1 i SDRAM_BA [1] $end
$var wire 1 j SDRAM_BA [0] $end
$var wire 1 k SDRAM_CAS_N $end
$var wire 1 l SDRAM_CKE $end
$var wire 1 m SDRAM_CLK $end
$var wire 1 n SDRAM_CS_N $end
$var wire 1 o SDRAM_DQ [15] $end
$var wire 1 p SDRAM_DQ [14] $end
$var wire 1 q SDRAM_DQ [13] $end
$var wire 1 r SDRAM_DQ [12] $end
$var wire 1 s SDRAM_DQ [11] $end
$var wire 1 t SDRAM_DQ [10] $end
$var wire 1 u SDRAM_DQ [9] $end
$var wire 1 v SDRAM_DQ [8] $end
$var wire 1 w SDRAM_DQ [7] $end
$var wire 1 x SDRAM_DQ [6] $end
$var wire 1 y SDRAM_DQ [5] $end
$var wire 1 z SDRAM_DQ [4] $end
$var wire 1 { SDRAM_DQ [3] $end
$var wire 1 | SDRAM_DQ [2] $end
$var wire 1 } SDRAM_DQ [1] $end
$var wire 1 ~ SDRAM_DQ [0] $end
$var wire 1 !! SDRAM_DQM [1] $end
$var wire 1 "! SDRAM_DQM [0] $end
$var wire 1 #! SDRAM_RAS_N $end
$var wire 1 $! SDRAM_WE_N $end
$var wire 1 %! STATE_CHECK [3] $end
$var wire 1 &! STATE_CHECK [2] $end
$var wire 1 '! STATE_CHECK [1] $end
$var wire 1 (! STATE_CHECK [0] $end
$var wire 1 )! TESTCLK $end

$scope module i1 $end
$var wire 1 *! gnd $end
$var wire 1 +! vcc $end
$var wire 1 ,! unknown $end
$var tri1 1 -! devclrn $end
$var tri1 1 .! devpor $end
$var tri1 1 /! devoe $end
$var wire 1 0! ENC_ABS_HOME~input_o $end
$var wire 1 1! ENC_360~input_o $end
$var wire 1 2! VSYNC~input_o $end
$var wire 1 3! DE~input_o $end
$var wire 1 4! SDRAM_DQ[0]~input_o $end
$var wire 1 5! SDRAM_DQ[1]~input_o $end
$var wire 1 6! SDRAM_DQ[2]~input_o $end
$var wire 1 7! SDRAM_DQ[3]~input_o $end
$var wire 1 8! SDRAM_DQ[4]~input_o $end
$var wire 1 9! SDRAM_DQ[5]~input_o $end
$var wire 1 :! SDRAM_DQ[6]~input_o $end
$var wire 1 ;! SDRAM_DQ[7]~input_o $end
$var wire 1 <! SDRAM_DQ[8]~input_o $end
$var wire 1 =! SDRAM_DQ[9]~input_o $end
$var wire 1 >! SDRAM_DQ[10]~input_o $end
$var wire 1 ?! SDRAM_DQ[11]~input_o $end
$var wire 1 @! SDRAM_DQ[12]~input_o $end
$var wire 1 A! SDRAM_DQ[13]~input_o $end
$var wire 1 B! SDRAM_DQ[14]~input_o $end
$var wire 1 C! SDRAM_DQ[15]~input_o $end
$var wire 1 D! ~ALTERA_ASDO_DATA1~~ibuf_o $end
$var wire 1 E! ~ALTERA_ASDO_DATA1~~padout $end
$var wire 1 F! ~ALTERA_DCLK~~padout $end
$var wire 1 G! ~ALTERA_DATA0~~ibuf_o $end
$var wire 1 H! ~ALTERA_DATA0~~padout $end
$var wire 1 I! ~ALTERA_DCLK~~obuf_o $end
$var wire 1 J! TESTCLK2~input_o $end
$var wire 1 K! TESTCLK2~inputclkctrl_outclk $end
$var wire 1 L! nReset~input_o $end
$var wire 1 M! Add1~0_combout $end
$var wire 1 N! bit_num~7_combout $end
$var wire 1 O! init~0_combout $end
$var wire 1 P! init~q $end
$var wire 1 Q! state~44_combout $end
$var wire 1 R! state.00000000000000000000000000000001~q $end
$var wire 1 S! state~45_combout $end
$var wire 1 T! state.00000000000000000000000000000010~q $end
$var wire 1 U! Selector547~0_combout $end
$var wire 1 V! state.00000000000000000000000000000011~q $end
$var wire 1 W! bit_num[13]~3_combout $end
$var wire 1 X! daisy_num[29]~0_combout $end
$var wire 1 Y! bit_num[13]~36_combout $end
$var wire 1 Z! daisy_num[31]~2_combout $end
$var wire 1 [! Add0~0_combout $end
$var wire 1 \! daisy_num~5_combout $end
$var wire 1 ]! daisy_num~6_combout $end
$var wire 1 ^! daisy_num~7_combout $end
$var wire 1 _! Add0~1 $end
$var wire 1 `! Add0~2_combout $end
$var wire 1 a! daisy_num~1_combout $end
$var wire 1 b! Add0~3 $end
$var wire 1 c! Add0~4_combout $end
$var wire 1 d! daisy_num~3_combout $end
$var wire 1 e! Add0~5 $end
$var wire 1 f! Add0~6_combout $end
$var wire 1 g! daisy_num~4_combout $end
$var wire 1 h! Add0~7 $end
$var wire 1 i! Add0~8_combout $end
$var wire 1 j! daisy_num~8_combout $end
$var wire 1 k! Add0~9 $end
$var wire 1 l! Add0~10_combout $end
$var wire 1 m! daisy_num~9_combout $end
$var wire 1 n! Add0~11 $end
$var wire 1 o! Add0~12_combout $end
$var wire 1 p! daisy_num~10_combout $end
$var wire 1 q! Add0~13 $end
$var wire 1 r! Add0~14_combout $end
$var wire 1 s! daisy_num~11_combout $end
$var wire 1 t! Add0~15 $end
$var wire 1 u! Add0~16_combout $end
$var wire 1 v! daisy_num~12_combout $end
$var wire 1 w! Add0~17 $end
$var wire 1 x! Add0~18_combout $end
$var wire 1 y! daisy_num~13_combout $end
$var wire 1 z! Add0~19 $end
$var wire 1 {! Add0~20_combout $end
$var wire 1 |! daisy_num~14_combout $end
$var wire 1 }! Add0~21 $end
$var wire 1 ~! Add0~22_combout $end
$var wire 1 !" daisy_num~15_combout $end
$var wire 1 "" Add0~23 $end
$var wire 1 #" Add0~24_combout $end
$var wire 1 $" daisy_num~16_combout $end
$var wire 1 %" Add0~25 $end
$var wire 1 &" Add0~26_combout $end
$var wire 1 '" daisy_num~17_combout $end
$var wire 1 (" Add0~27 $end
$var wire 1 )" Add0~28_combout $end
$var wire 1 *" daisy_num~18_combout $end
$var wire 1 +" Add0~29 $end
$var wire 1 ," Add0~30_combout $end
$var wire 1 -" daisy_num~19_combout $end
$var wire 1 ." Add0~31 $end
$var wire 1 /" Add0~32_combout $end
$var wire 1 0" daisy_num~20_combout $end
$var wire 1 1" Add0~33 $end
$var wire 1 2" Add0~34_combout $end
$var wire 1 3" daisy_num~21_combout $end
$var wire 1 4" Add0~35 $end
$var wire 1 5" Add0~36_combout $end
$var wire 1 6" daisy_num~22_combout $end
$var wire 1 7" Add0~37 $end
$var wire 1 8" Add0~38_combout $end
$var wire 1 9" daisy_num~23_combout $end
$var wire 1 :" Add0~39 $end
$var wire 1 ;" Add0~40_combout $end
$var wire 1 <" daisy_num~24_combout $end
$var wire 1 =" Add0~41 $end
$var wire 1 >" Add0~42_combout $end
$var wire 1 ?" daisy_num~25_combout $end
$var wire 1 @" Add0~43 $end
$var wire 1 A" Add0~44_combout $end
$var wire 1 B" daisy_num~26_combout $end
$var wire 1 C" Add0~45 $end
$var wire 1 D" Add0~46_combout $end
$var wire 1 E" daisy_num~27_combout $end
$var wire 1 F" Add0~47 $end
$var wire 1 G" Add0~48_combout $end
$var wire 1 H" daisy_num~28_combout $end
$var wire 1 I" Add0~49 $end
$var wire 1 J" Add0~50_combout $end
$var wire 1 K" daisy_num~29_combout $end
$var wire 1 L" Add0~51 $end
$var wire 1 M" Add0~52_combout $end
$var wire 1 N" daisy_num~30_combout $end
$var wire 1 O" Add0~53 $end
$var wire 1 P" Add0~54_combout $end
$var wire 1 Q" daisy_num~31_combout $end
$var wire 1 R" Add0~55 $end
$var wire 1 S" Add0~56_combout $end
$var wire 1 T" daisy_num~32_combout $end
$var wire 1 U" Add0~57 $end
$var wire 1 V" Add0~58_combout $end
$var wire 1 W" daisy_num~33_combout $end
$var wire 1 X" Add0~59 $end
$var wire 1 Y" Add0~60_combout $end
$var wire 1 Z" daisy_num~34_combout $end
$var wire 1 [" Add0~61 $end
$var wire 1 \" Add0~62_combout $end
$var wire 1 ]" daisy_num[31]~35_combout $end
$var wire 1 ^" LessThan1~5_combout $end
$var wire 1 _" LessThan1~6_combout $end
$var wire 1 `" LessThan1~7_combout $end
$var wire 1 a" LessThan1~8_combout $end
$var wire 1 b" LessThan1~9_combout $end
$var wire 1 c" LessThan1~3_combout $end
$var wire 1 d" LessThan1~1_combout $end
$var wire 1 e" LessThan1~2_combout $end
$var wire 1 f" LessThan1~0_combout $end
$var wire 1 g" LessThan1~4_combout $end
$var wire 1 h" LessThan1~10_combout $end
$var wire 1 i" bit_num[13]~4_combout $end
$var wire 1 j" Add1~1 $end
$var wire 1 k" Add1~2_combout $end
$var wire 1 l" bit_num~2_combout $end
$var wire 1 m" Add1~3 $end
$var wire 1 n" Add1~4_combout $end
$var wire 1 o" bit_num~5_combout $end
$var wire 1 p" Add1~5 $end
$var wire 1 q" Add1~6_combout $end
$var wire 1 r" bit_num~6_combout $end
$var wire 1 s" Add1~7 $end
$var wire 1 t" Add1~8_combout $end
$var wire 1 u" bit_num~8_combout $end
$var wire 1 v" Add1~9 $end
$var wire 1 w" Add1~10_combout $end
$var wire 1 x" bit_num~9_combout $end
$var wire 1 y" Add1~11 $end
$var wire 1 z" Add1~12_combout $end
$var wire 1 {" bit_num~10_combout $end
$var wire 1 |" Add1~13 $end
$var wire 1 }" Add1~14_combout $end
$var wire 1 ~" bit_num~11_combout $end
$var wire 1 !# Add1~15 $end
$var wire 1 "# Add1~16_combout $end
$var wire 1 ## bit_num~14_combout $end
$var wire 1 $# Add1~17 $end
$var wire 1 %# Add1~18_combout $end
$var wire 1 &# bit_num~15_combout $end
$var wire 1 '# Add1~19 $end
$var wire 1 (# Add1~20_combout $end
$var wire 1 )# bit_num~12_combout $end
$var wire 1 *# Add1~21 $end
$var wire 1 +# Add1~22_combout $end
$var wire 1 ,# bit_num~13_combout $end
$var wire 1 -# Add1~23 $end
$var wire 1 .# Add1~24_combout $end
$var wire 1 /# bit_num~16_combout $end
$var wire 1 0# Add1~25 $end
$var wire 1 1# Add1~26_combout $end
$var wire 1 2# bit_num~17_combout $end
$var wire 1 3# Add1~27 $end
$var wire 1 4# Add1~28_combout $end
$var wire 1 5# bit_num~18_combout $end
$var wire 1 6# Add1~29 $end
$var wire 1 7# Add1~30_combout $end
$var wire 1 8# bit_num~19_combout $end
$var wire 1 9# Add1~31 $end
$var wire 1 :# Add1~32_combout $end
$var wire 1 ;# bit_num~20_combout $end
$var wire 1 <# Add1~33 $end
$var wire 1 =# Add1~34_combout $end
$var wire 1 ># bit_num~21_combout $end
$var wire 1 ?# Add1~35 $end
$var wire 1 @# Add1~36_combout $end
$var wire 1 A# bit_num~22_combout $end
$var wire 1 B# Add1~37 $end
$var wire 1 C# Add1~38_combout $end
$var wire 1 D# bit_num~23_combout $end
$var wire 1 E# Add1~39 $end
$var wire 1 F# Add1~40_combout $end
$var wire 1 G# bit_num~24_combout $end
$var wire 1 H# Add1~41 $end
$var wire 1 I# Add1~42_combout $end
$var wire 1 J# bit_num~25_combout $end
$var wire 1 K# Add1~43 $end
$var wire 1 L# Add1~44_combout $end
$var wire 1 M# bit_num~26_combout $end
$var wire 1 N# Add1~45 $end
$var wire 1 O# Add1~46_combout $end
$var wire 1 P# bit_num~27_combout $end
$var wire 1 Q# LessThan0~6_combout $end
$var wire 1 R# LessThan0~5_combout $end
$var wire 1 S# LessThan0~7_combout $end
$var wire 1 T# bit_num~34_combout $end
$var wire 1 U# Add1~47 $end
$var wire 1 V# Add1~48_combout $end
$var wire 1 W# bit_num~28_combout $end
$var wire 1 X# Add1~49 $end
$var wire 1 Y# Add1~50_combout $end
$var wire 1 Z# bit_num~29_combout $end
$var wire 1 [# Add1~51 $end
$var wire 1 \# Add1~52_combout $end
$var wire 1 ]# bit_num~30_combout $end
$var wire 1 ^# Add1~53 $end
$var wire 1 _# Add1~54_combout $end
$var wire 1 `# bit_num~31_combout $end
$var wire 1 a# Add1~55 $end
$var wire 1 b# Add1~56_combout $end
$var wire 1 c# bit_num~32_combout $end
$var wire 1 d# Add1~57 $end
$var wire 1 e# Add1~58_combout $end
$var wire 1 f# bit_num~33_combout $end
$var wire 1 g# Add1~59 $end
$var wire 1 h# Add1~60_combout $end
$var wire 1 i# bit_num~37_combout $end
$var wire 1 j# Add1~61 $end
$var wire 1 k# Add1~62_combout $end
$var wire 1 l# bit_num[31]~35_combout $end
$var wire 1 m# LessThan0~0_combout $end
$var wire 1 n# LessThan0~1_combout $end
$var wire 1 o# LessThan0~2_combout $end
$var wire 1 p# LessThan0~3_combout $end
$var wire 1 q# LessThan0~4_combout $end
$var wire 1 r# LessThan0~8_combout $end
$var wire 1 s# LessThan0~9_combout $end
$var wire 1 t# enable_shifter~0_combout $end
$var wire 1 u# enable_shifter~1_combout $end
$var wire 1 v# enable_shifter~q $end
$var wire 1 w# Selector548~0_combout $end
$var wire 1 x# state.00000000000000000000000000000100~q $end
$var wire 1 y# state~43_combout $end
$var wire 1 z# state.00000000000000000000000000000000~q $end
$var wire 1 {# Selector0~0_combout $end
$var wire 1 |# LAT~reg0_q $end
$var wire 1 }# CLK_10M~input_o $end
$var wire 1 ~# pll|altpll_component|auto_generated|wire_pll1_fbout $end
$var wire 1 !$ pll|altpll_component|auto_generated|wire_pll1_clk[0]~clkctrl_outclk $end
$var wire 1 "$ pll|altpll_component|auto_generated|wire_pll1_clk[1]~clkctrl_outclk $end
$var wire 1 #$ pll|altpll_component|auto_generated|wire_pll1_clk[2]~clkctrl_outclk $end
$var wire 1 $$ pll|altpll_component|auto_generated|wire_pll1_clk [4] $end
$var wire 1 %$ pll|altpll_component|auto_generated|wire_pll1_clk [3] $end
$var wire 1 &$ pll|altpll_component|auto_generated|wire_pll1_clk [2] $end
$var wire 1 '$ pll|altpll_component|auto_generated|wire_pll1_clk [1] $end
$var wire 1 ($ pll|altpll_component|auto_generated|wire_pll1_clk [0] $end
$var wire 1 )$ bit_num [31] $end
$var wire 1 *$ bit_num [30] $end
$var wire 1 +$ bit_num [29] $end
$var wire 1 ,$ bit_num [28] $end
$var wire 1 -$ bit_num [27] $end
$var wire 1 .$ bit_num [26] $end
$var wire 1 /$ bit_num [25] $end
$var wire 1 0$ bit_num [24] $end
$var wire 1 1$ bit_num [23] $end
$var wire 1 2$ bit_num [22] $end
$var wire 1 3$ bit_num [21] $end
$var wire 1 4$ bit_num [20] $end
$var wire 1 5$ bit_num [19] $end
$var wire 1 6$ bit_num [18] $end
$var wire 1 7$ bit_num [17] $end
$var wire 1 8$ bit_num [16] $end
$var wire 1 9$ bit_num [15] $end
$var wire 1 :$ bit_num [14] $end
$var wire 1 ;$ bit_num [13] $end
$var wire 1 <$ bit_num [12] $end
$var wire 1 =$ bit_num [11] $end
$var wire 1 >$ bit_num [10] $end
$var wire 1 ?$ bit_num [9] $end
$var wire 1 @$ bit_num [8] $end
$var wire 1 A$ bit_num [7] $end
$var wire 1 B$ bit_num [6] $end
$var wire 1 C$ bit_num [5] $end
$var wire 1 D$ bit_num [4] $end
$var wire 1 E$ bit_num [3] $end
$var wire 1 F$ bit_num [2] $end
$var wire 1 G$ bit_num [1] $end
$var wire 1 H$ bit_num [0] $end
$var wire 1 I$ daisy_num [31] $end
$var wire 1 J$ daisy_num [30] $end
$var wire 1 K$ daisy_num [29] $end
$var wire 1 L$ daisy_num [28] $end
$var wire 1 M$ daisy_num [27] $end
$var wire 1 N$ daisy_num [26] $end
$var wire 1 O$ daisy_num [25] $end
$var wire 1 P$ daisy_num [24] $end
$var wire 1 Q$ daisy_num [23] $end
$var wire 1 R$ daisy_num [22] $end
$var wire 1 S$ daisy_num [21] $end
$var wire 1 T$ daisy_num [20] $end
$var wire 1 U$ daisy_num [19] $end
$var wire 1 V$ daisy_num [18] $end
$var wire 1 W$ daisy_num [17] $end
$var wire 1 X$ daisy_num [16] $end
$var wire 1 Y$ daisy_num [15] $end
$var wire 1 Z$ daisy_num [14] $end
$var wire 1 [$ daisy_num [13] $end
$var wire 1 \$ daisy_num [12] $end
$var wire 1 ]$ daisy_num [11] $end
$var wire 1 ^$ daisy_num [10] $end
$var wire 1 _$ daisy_num [9] $end
$var wire 1 `$ daisy_num [8] $end
$var wire 1 a$ daisy_num [7] $end
$var wire 1 b$ daisy_num [6] $end
$var wire 1 c$ daisy_num [5] $end
$var wire 1 d$ daisy_num [4] $end
$var wire 1 e$ daisy_num [3] $end
$var wire 1 f$ daisy_num [2] $end
$var wire 1 g$ daisy_num [1] $end
$var wire 1 h$ daisy_num [0] $end
$var wire 1 i$ pll|altpll_component|auto_generated|pll1_CLK_bus [4] $end
$var wire 1 j$ pll|altpll_component|auto_generated|pll1_CLK_bus [3] $end
$var wire 1 k$ pll|altpll_component|auto_generated|pll1_CLK_bus [2] $end
$var wire 1 l$ pll|altpll_component|auto_generated|pll1_CLK_bus [1] $end
$var wire 1 m$ pll|altpll_component|auto_generated|pll1_CLK_bus [0] $end
$upscope $end
$upscope $end
$enddefinitions $end
#0
$dumpvars
x!
x"
x#
x$
bx %
0&
x'
1(
x)
0*
0+
z,
z-
z.
z/
z0
z1
z2
z3
z4
z5
z6
z7
z8
z9
z:
z;
z<
z=
z>
z?
z@
zA
zB
zC
zD
zE
zF
zG
zH
zI
zJ
zK
zL
zM
zN
zO
zP
zQ
zR
zS
zT
zU
zV
zW
zX
zY
zZ
z[
0h
0g
0f
0e
0d
0c
0b
0a
0`
0_
0^
0]
0\
0j
0i
0k
0l
xm
0n
x~
x}
x|
x{
xz
xy
xx
xw
xv
xu
xt
xs
xr
xq
xp
xo
0"!
0!!
0#!
0$!
0(!
0'!
0&!
0%!
x)!
0*!
1+!
x,!
1-!
1.!
1/!
x0!
x1!
x2!
x3!
x4!
x5!
x6!
x7!
x8!
x9!
x:!
x;!
x<!
x=!
x>!
x?!
x@!
xA!
xB!
xC!
zD!
zE!
zF!
zG!
zH!
zI!
0J!
0K!
1L!
0M!
0N!
0O!
0P!
1Q!
0R!
0S!
0T!
0U!
0V!
1W!
0X!
1Y!
0Z!
0[!
1\!
0]!
0^!
1_!
0`!
0a!
0b!
0c!
0d!
1e!
0f!
0g!
0h!
0i!
0j!
1k!
0l!
0m!
0n!
0o!
0p!
1q!
0r!
0s!
0t!
0u!
0v!
1w!
0x!
0y!
0z!
0{!
0|!
1}!
0~!
0!"
0""
0#"
0$"
1%"
0&"
0'"
0("
0)"
0*"
1+"
0,"
0-"
0."
0/"
00"
11"
02"
03"
04"
05"
06"
17"
08"
09"
0:"
0;"
0<"
1="
0>"
0?"
0@"
0A"
0B"
1C"
0D"
0E"
0F"
0G"
0H"
1I"
0J"
0K"
0L"
0M"
0N"
1O"
0P"
0Q"
0R"
0S"
0T"
1U"
0V"
0W"
0X"
0Y"
0Z"
1["
0\"
0]"
0^"
0_"
0`"
0a"
0b"
0c"
0d"
0e"
1f"
1g"
1h"
1i"
1j"
0k"
0l"
0m"
0n"
0o"
1p"
0q"
0r"
0s"
0t"
0u"
1v"
0w"
0x"
0y"
0z"
0{"
1|"
0}"
0~"
0!#
1"#
0##
1$#
1%#
0&#
0'#
0(#
0)#
1*#
0+#
0,#
0-#
0.#
0/#
10#
01#
02#
03#
04#
05#
16#
07#
08#
09#
0:#
0;#
1<#
0=#
0>#
0?#
0@#
0A#
1B#
0C#
0D#
0E#
0F#
0G#
1H#
0I#
0J#
0K#
0L#
0M#
1N#
0O#
0P#
0Q#
0R#
0S#
0T#
0U#
0V#
0W#
1X#
0Y#
0Z#
0[#
0\#
0]#
1^#
0_#
0`#
0a#
0b#
0c#
1d#
0e#
0f#
0g#
0h#
0i#
1j#
0k#
0l#
1m#
0n#
1o#
0p#
1q#
0r#
0s#
1t#
0u#
0v#
0w#
0x#
1y#
0z#
0{#
0|#
x}#
x~#
x!$
x"$
x#$
x($
x'$
x&$
x%$
x$$
0H$
0G$
0F$
0E$
0D$
0C$
0B$
0A$
0@$
0?$
0>$
0=$
0<$
0;$
0:$
09$
08$
07$
06$
05$
04$
03$
02$
01$
00$
0/$
0.$
0-$
0,$
0+$
0*$
0)$
0h$
0g$
0f$
0e$
0d$
0c$
0b$
0a$
0`$
0_$
0^$
0]$
0\$
0[$
0Z$
0Y$
0X$
0W$
0V$
0U$
0T$
0S$
0R$
0Q$
0P$
0O$
0N$
0M$
0L$
0K$
0J$
0I$
xm$
xl$
xk$
xj$
xi$
$end
#833
1~#
#5000
1&
1J!
1K!
1z#
1R!
0W!
0Q!
1U!
1O!
0i"
#10000
0&
0J!
0K!
#10833
0~#
#15000
1&
1J!
1K!
1V!
0R!
1P!
0Y!
1W!
1w#
1u#
0U!
1Z!
1i"
#20000
0&
0J!
0K!
#20833
1~#
#25000
1&
1J!
1K!
1x#
1v#
0V!
1T#
1Y!
0W!
1N!
0Z!
#30000
0&
0J!
0K!
#30833
0~#
#35000
1&
1J!
1K!
1H$
0m#
0j"
1M!
1m"
1k"
0N!
0p"
1n"
1l"
1s"
1q"
1o"
0v"
1t"
1r"
1y"
1w"
1u"
0|"
1z"
1x"
1!#
1}"
1{"
0"#
1~"
1##
#40000
0&
0J!
0K!
#40833
1~#
#45000
1&
1J!
1K!
1@$
1A$
1B$
1C$
1D$
1E$
1F$
1G$
0H$
0$#
1"#
1n#
0!#
0}"
1|"
0z"
0y"
0w"
1v"
0t"
1m#
0s"
0q"
1p"
0n"
0m"
0k"
1j"
0M!
0%#
1$#
0"#
1}"
1z"
1w"
1t"
1q"
1n"
0l"
1k"
0##
0~"
0{"
0x"
0u"
0r"
0o"
1N!
1%#
1l"
1&#
1##
1~"
1{"
1x"
1u"
1r"
1o"
0&#
#50000
0&
0J!
0K!
#50833
0~#
#55000
1&
1J!
1K!
1H$
0j"
1M!
0k"
0N!
0l"
#60000
0&
0J!
0K!
#60833
1~#
#65000
1&
1J!
1K!
0G$
0H$
1m"
1k"
1j"
0M!
0n"
1l"
0m"
0k"
1N!
1n"
0l"
0o"
1o"
#70000
0&
0J!
0K!
#70833
0~#
#75000
1&
1J!
1K!
1H$
0j"
1M!
1m"
1k"
0N!
0n"
1l"
0o"
#80000
0&
0J!
0K!
#80833
1~#
#85000
1&
1J!
1K!
0F$
1G$
0H$
0p"
1n"
0m"
0k"
1j"
0M!
0q"
1p"
0n"
0l"
1k"
1o"
1N!
1q"
1l"
0r"
0o"
1r"
#90000
0&
0J!
0K!
#90833
0~#
#95000
1&
1J!
1K!
1H$
0j"
1M!
0k"
0N!
0l"
#100000
0&
0J!
0K!
#100833
1~#
0~#
#105000
1&
1J!
1K!
0G$
0H$
1m"
1k"
1j"
0M!
0p"
1n"
1l"
0m"
0k"
1N!
0q"
1p"
0n"
0l"
1o"
1q"
0r"
0o"
1r"
#110000
0&
0J!
0K!
#115000
1&
1J!
1K!
1H$
0j"
1M!
1m"
1k"
0N!
0p"
1n"
1l"
0q"
1o"
0r"
#120000
0&
0J!
0K!
#125000
1&
1J!
1K!
0E$
1F$
1G$
0H$
1s"
1q"
1p"
0n"
0m"
0k"
1j"
0M!
0t"
0s"
0q"
1n"
0l"
1k"
1r"
0o"
1N!
1t"
1l"
0u"
0r"
1o"
1u"
#130000
0&
0J!
0K!
#135000
1&
1J!
1K!
1H$
0j"
1M!
0k"
0N!
0l"
#140000
0&
0J!
0K!
#145000
1&
1J!
1K!
0G$
0H$
1m"
1k"
1j"
0M!
0n"
1l"
0m"
0k"
1N!
1n"
0l"
0o"
1o"
#150000
0&
0J!
0K!
#155000
1&
1J!
1K!
1H$
0j"
1M!
1m"
1k"
0N!
0n"
1l"
0o"
#160000
0&
0J!
0K!
#165000
1&
1J!
1K!
0F$
1G$
0H$
0p"
1n"
0m"
0k"
1j"
0M!
1s"
1q"
1p"
0n"
0l"
1k"
1o"
1N!
0t"
0s"
0q"
1l"
1r"
0o"
1t"
0u"
0r"
1u"
#170000
0&
0J!
0K!
#175000
1&
1J!
1K!
1H$
0j"
1M!
0k"
0N!
0l"
#180000
0&
0J!
0K!
#185000
1&
1J!
1K!
0G$
0H$
1m"
1k"
1j"
0M!
0p"
1n"
1l"
0m"
0k"
1N!
1s"
1q"
1p"
0n"
0l"
1o"
0t"
0s"
0q"
1r"
0o"
1t"
0u"
0r"
1u"
#190000
0&
0J!
0K!
#195000
1&
1J!
1K!
1H$
0m#
0j"
1M!
1m"
1k"
0N!
0p"
1n"
1l"
1s"
1q"
1o"
0t"
1r"
0u"
#200000
0&
0J!
0K!
#205000
1&
1J!
1K!
0D$
1E$
1F$
1G$
0H$
0v"
1t"
1m#
0s"
0q"
1p"
0n"
0m"
0k"
1j"
0M!
0w"
1v"
0t"
1q"
1n"
0l"
1k"
1u"
0r"
0o"
1N!
1w"
1l"
0x"
0u"
1r"
1o"
1x"
#210000
0&
0J!
0K!
#215000
1&
1J!
1K!
1H$
0j"
1M!
0k"
0N!
0l"
#220000
0&
0J!
0K!
#225000
1&
1J!
1K!
0G$
0H$
1m"
1k"
1j"
0M!
0n"
1l"
0m"
0k"
1N!
1n"
0l"
0o"
1o"
#230000
0&
0J!
0K!
#235000
1&
1J!
1K!
1H$
0j"
1M!
1m"
1k"
0N!
0n"
1l"
0o"
#240000
0&
0J!
0K!
#245000
1&
1J!
1K!
0F$
1G$
0H$
0p"
1n"
0m"
0k"
1j"
0M!
0q"
1p"
0n"
0l"
1k"
1o"
1N!
1q"
1l"
0r"
0o"
1r"
#250000
0&
0J!
0K!
#255000
1&
1J!
1K!
1H$
0j"
1M!
0k"
0N!
0l"
#260000
0&
0J!
0K!
#265000
1&
1J!
1K!
0G$
0H$
1m"
1k"
1j"
0M!
0p"
1n"
1l"
0m"
0k"
1N!
0q"
1p"
0n"
0l"
1o"
1q"
0r"
0o"
1r"
#270000
0&
0J!
0K!
#275000
1&
1J!
1K!
1H$
0j"
1M!
1m"
1k"
0N!
0p"
1n"
1l"
0q"
1o"
0r"
#280000
0&
0J!
0K!
#285000
1&
1J!
1K!
0E$
1F$
1G$
0H$
1s"
1q"
1p"
0n"
0m"
0k"
1j"
0M!
0v"
1t"
0s"
0q"
1n"
0l"
1k"
1r"
0o"
1N!
0w"
1v"
0t"
1l"
1u"
0r"
1o"
1w"
0x"
0u"
1x"
#290000
0&
0J!
0K!
#295000
1&
1J!
1K!
1H$
0j"
1M!
0k"
0N!
0l"
#300000
0&
0J!
0K!
#305000
1&
1J!
1K!
0G$
0H$
1m"
1k"
1j"
0M!
0n"
1l"
0m"
0k"
1N!
1n"
0l"
0o"
1o"
#310000
0&
0J!
0K!
#315000
1&
1J!
1K!
1H$
0j"
1M!
1m"
1k"
0N!
0n"
1l"
0o"
#320000
0&
0J!
0K!
#325000
1&
1J!
1K!
0F$
1G$
0H$
0p"
1n"
0m"
0k"
1j"
0M!
1s"
1q"
1p"
0n"
0l"
1k"
1o"
1N!
0v"
1t"
0s"
0q"
1l"
1r"
0o"
0w"
1v"
0t"
1u"
0r"
1w"
0x"
0u"
1x"
#330000
0&
0J!
0K!
